userId,user_name,post_id,post_title,body
"10, Clementina DuBuque, 91, aut amet sed, I have nobis"
"10, Clementina DuBuque, 92, ratione ex tenetur perferendis, I have nobis"
"10, Clementina DuBuque, 93, beatae soluta recusandae, I have nobis"
"10, Clementina DuBuque, 94, qui qui voluptates illo iste minima, I have nobis"
"10, Clementina DuBuque, 95, id minus libero illum nam ad officiis, I have nobis"
"10, Clementina DuBuque, 96, quaerat velit veniam amet cupiditate aut numquam ut sequi, I have nobis"
"10, Clementina DuBuque, 97, quas fugiat ut perspiciatis vero provident, I have nobis"
"10, Clementina DuBuque, 98, laboriosam dolor voluptates, I have nobis"
"10, Clementina DuBuque, 99, temporibus sit alias delectus eligendi possimus magni, I have nobis"
"10, Clementina DuBuque, 100, at nam consequatur ea labore ea harum, I have nobis"
"9, Glenna Reichert, 81, tempora rem veritatis voluptas quo dolores vero, I have nobis"
"9, Glenna Reichert, 82, laudantium voluptate suscipit sunt enim enim, I have nobis"
"9, Glenna Reichert, 83, odit et voluptates doloribus alias odio et, I have nobis"
"9, Glenna Reichert, 84, optio ipsam molestias necessitatibus occaecati facilis veritatis dolores aut, I have nobis"
"9, Glenna Reichert, 85, dolore veritatis porro provident adipisci blanditiis et sunt, I have nobis"
"9, Glenna Reichert, 86, placeat quia et porro iste, I have nobis"
"9, Glenna Reichert, 87, nostrum quis quasi placeat, I have nobis"
"9, Glenna Reichert, 88, sapiente omnis fugit eos, I have nobis"
"9, Glenna Reichert, 89, sint soluta et vel magnam aut ut sed qui, I have nobis"
"9, Glenna Reichert, 90, ad iusto omnis odit dolor voluptatibus, I have nobis"
"8, Nicholas Runolfsdottir V, 71, et iusto veniam et illum aut fuga, I have nobis"
"8, Nicholas Runolfsdottir V, 72, sint hic doloribus consequatur eos non id, I have nobis"
"8, Nicholas Runolfsdottir V, 73, consequuntur deleniti eos quia temporibus ab aliquid at, I have nobis"
"8, Nicholas Runolfsdottir V, 74, enim unde ratione doloribus quas enim ut sit sapiente, I have nobis"
"8, Nicholas Runolfsdottir V, 75, dignissimos eum dolor ut enim et delectus in, I have nobis"
"8, Nicholas Runolfsdottir V, 76, doloremque officiis ad et non perferendis, I have nobis"
"8, Nicholas Runolfsdottir V, 77, necessitatibus quasi exercitationem odio, I have nobis"
"8, Nicholas Runolfsdottir V, 78, quam voluptatibus rerum veritatis, I do not have nobis"
"8, Nicholas Runolfsdottir V, 79, pariatur consequatur quia magnam autem omnis non amet, I have nobis"
"8, Nicholas Runolfsdottir V, 80, labore in ex et explicabo corporis aut quas, I have nobis"
"7, Kurtis Weissnat, 61, voluptatem doloribus consectetur est ut ducimus, I have nobis"
"7, Kurtis Weissnat, 62, beatae enim quia vel, I have nobis"
"7, Kurtis Weissnat, 63, voluptas blanditiis repellendus animi ducimus error sapiente et suscipit, I have nobis"
"7, Kurtis Weissnat, 64, et fugit quas eum in in aperiam quod, I have nobis"
"7, Kurtis Weissnat, 65, consequatur id enim sunt et et, I have nobis"
"7, Kurtis Weissnat, 66, repudiandae ea animi iusto, I have nobis"
"7, Kurtis Weissnat, 67, aliquid eos sed fuga est maxime repellendus, I have nobis"
"7, Kurtis Weissnat, 68, odio quis facere architecto reiciendis optio, I have nobis"
"7, Kurtis Weissnat, 69, fugiat quod pariatur odit minima, I have nobis"
"7, Kurtis Weissnat, 70, voluptatem laborum magni, I have nobis"
"6, Mrs. Dennis Schulist, 51, soluta aliquam aperiam consequatur illo quis voluptas, I have nobis"
"6, Mrs. Dennis Schulist, 52, qui enim et consequuntur quia animi quis voluptate quibusdam, I have nobis"
"6, Mrs. Dennis Schulist, 53, ut quo aut ducimus alias, I have nobis"
"6, Mrs. Dennis Schulist, 54, sit asperiores ipsam eveniet odio non quia, I have nobis"
"6, Mrs. Dennis Schulist, 55, sit vel voluptatem et non libero, I have nobis"
"6, Mrs. Dennis Schulist, 56, qui et at rerum necessitatibus, I have nobis"
"6, Mrs. Dennis Schulist, 57, sed ab est est, I have nobis"
"6, Mrs. Dennis Schulist, 58, voluptatum itaque dolores nisi et quasi, I have nobis"
"6, Mrs. Dennis Schulist, 59, qui commodi dolor at maiores et quis id accusantium, I have nobis"
"6, Mrs. Dennis Schulist, 60, consequatur placeat omnis quisquam quia reprehenderit fugit veritatis facere, I have nobis"
"5, Chelsey Dietrich, 41, non est facere, I have nobis"
"5, Chelsey Dietrich, 42, commodi ullam sint et excepturi error explicabo praesentium voluptas, I have nobis"
"5, Chelsey Dietrich, 43, eligendi iste nostrum consequuntur adipisci praesentium sit beatae perferendis, I have nobis"
"5, Chelsey Dietrich, 44, optio dolor molestias sit, I have nobis"
"5, Chelsey Dietrich, 45, ut numquam possimus omnis eius suscipit laudantium iure, I have nobis"
"5, Chelsey Dietrich, 46, aut quo modi neque nostrum ducimus, I have nobis"
"5, Chelsey Dietrich, 47, quibusdam cumque rem aut deserunt, I have nobis"
"5, Chelsey Dietrich, 48, ut voluptatem illum ea doloribus itaque eos, I have nobis"
"5, Chelsey Dietrich, 49, laborum non sunt aut ut assumenda perspiciatis voluptas, I have nobis"
"5, Chelsey Dietrich, 50, repellendus qui recusandae incidunt voluptates tenetur qui omnis exercitationem, I have nobis"
"4, Patricia Lebsack, 31, ullam ut quidem id aut vel consequuntur, I have nobis"
"4, Patricia Lebsack, 32, doloremque illum aliquid sunt, I have nobis"
"4, Patricia Lebsack, 33, qui explicabo molestiae dolorem, I have nobis"
"4, Patricia Lebsack, 34, magnam ut rerum iure, I have nobis"
"4, Patricia Lebsack, 35, id nihil consequatur molestias animi provident, I have nobis"
"4, Patricia Lebsack, 36, fuga nam accusamus voluptas reiciendis itaque, I have nobis"
"4, Patricia Lebsack, 37, provident vel ut sit ratione est, I have nobis"
"4, Patricia Lebsack, 38, explicabo et eos deleniti nostrum ab id repellendus, I have nobis"
"4, Patricia Lebsack, 39, eos dolorem iste accusantium est eaque quam, I have nobis"
"4, Patricia Lebsack, 40, enim quo cumque, I have nobis"
"3, Clementine Bauch, 21, asperiores ea ipsam voluptatibus modi minima quia sint, I have nobis"
"3, Clementine Bauch, 22, dolor sint quo a velit explicabo quia nam, I have nobis"
"3, Clementine Bauch, 23, maxime id vitae nihil numquam, I have nobis"
"3, Clementine Bauch, 24, autem hic labore sunt dolores incidunt, I have nobis"
"3, Clementine Bauch, 25, rem alias distinctio quo quis, I have nobis"
"3, Clementine Bauch, 26, est et quae odit qui non, I have nobis"
"3, Clementine Bauch, 27, quasi id et eos tenetur aut quo autem, I have nobis"
"3, Clementine Bauch, 28, delectus ullam et corporis nulla voluptas sequi, I have nobis"
"3, Clementine Bauch, 29, iusto eius quod necessitatibus culpa ea, I have nobis"
"3, Clementine Bauch, 30, a quo magni similique perferendis, I have nobis"
"2, Ervin Howell, 11, et ea vero quia laudantium autem, I have nobis"
"2, Ervin Howell, 12, in quibusdam tempore odit est dolorem, I have nobis"
"2, Ervin Howell, 13, dolorum ut in voluptas mollitia et saepe quo animi, I have nobis"
"2, Ervin Howell, 14, voluptatem eligendi optio, I have nobis"
"2, Ervin Howell, 15, eveniet quod temporibus, I have nobis"
"2, Ervin Howell, 16, sint suscipit perspiciatis velit dolorum rerum ipsa laboriosam odio, I have nobis"
"2, Ervin Howell, 17, fugit voluptas sed molestias voluptatem provident, I have nobis"
"2, Ervin Howell, 18, voluptate et itaque vero tempora molestiae, I have nobis"
"2, Ervin Howell, 19, adipisci placeat illum aut reiciendis qui, I have nobis"
"2, Ervin Howell, 20, doloribus ad provident suscipit at, I have nobis"
"1, Leanne Graham, 1, sunt aut facere repellat provident occaecati excepturi optio reprehenderit, I have nobis"
"1, Leanne Graham, 2, qui est esse, I have nobis"
"1, Leanne Graham, 3, ea molestias quasi exercitationem repellat qui ipsa sit aut, I have nobis"
"1, Leanne Graham, 4, eum et est occaecati, I have nobis"
"1, Leanne Graham, 5, nesciunt quas odio, I have nobis"
"1, Leanne Graham, 6, dolorem eum magni eos aperiam quia, I have nobis"
"1, Leanne Graham, 7, magnam facilis autem, I have nobis"
"1, Leanne Graham, 8, dolorem dolore est ipsam, I have nobis"
"1, Leanne Graham, 9, nesciunt iure omnis dolorem tempora et accusantium, I have nobis"
"1, Leanne Graham, 10, optio molestias id quia eum, I have nobis"
